…
## Choose an option for the `channel` function argument:

- *lifestyle*: Is the desired data channel lifestyle?  
- *entertainment*: Is the desired data channel entertainment?  
- *bus*: Is the desired data channel business?  
- *socmed*: Is the desired data channel social media?
- *tech*: Is the desired data channel technology?  
- *world*: Is the desired data channel world?

``` r
news_data <- channel("lifestyle")
news_data
```

    ## # A tibble: 2,099 × 15
    ##    Number_Title_Words Number_Content_… Number_Images Number_Videos Published_Mon
    ##                 <dbl>            <dbl>         <dbl>         <dbl>         <dbl>
    ##  1                  8              960            20             0             1
    ##  2                 10              187             1             0             1
    ##  3                 11              103             1             0             1
    ##  4                 10              243             0             0             1
    ##  5                  8              204             1             0             1
    ##  6                 11              315             1             0             1
    ##  7                 10             1190            20             0             1
    ##  8                  6              374             1             0             1
    ##  9                 12              499             1             0             0
    ## 10                 11              223             0             0             0
    ## # … with 2,089 more rows, and 10 more variables: Published_Tues <dbl>,
    ## #   Published_Weds <dbl>, Published_Thurs <dbl>, Published_Fri <dbl>,
    ## #   Published_Sat <dbl>, Published_Sun <dbl>, Positive_Word_Rate <dbl>,
    ## #   Negative_Word_Rate <dbl>, Title_Polarity <dbl>, Shares <dbl>
…
